…
These three functions make running one country FPEM straightforward,
while retaining enough division to carry out a variety of developer and
client tasks. In this document we will cover the typical use of these
three functions.

To start a run we need to know the country code for the country of
interest. Our package contains country codes and other country units in
the dataset `divisions`.

``` r
divisions
```

    ## # A tibble: 232 x 13
    ##    division_numeri~ name_country name_region name_sub_region region_numeric_~
    ##               <dbl> <chr>        <chr>       <chr>                      <dbl>
    ##  1                4 Afghanistan  Asia        South-Central ~              935
    ##  2                8 Albania      Europe      Southern Europe              908
    ##  3               12 Algeria      Africa      Northern Africa              903
    ##  4               16 American Sa~ Oceania     Polynesia                    909
    ##  5               20 Andorra      Europe      Southern Europe              908
    ##  6               24 Angola       Africa      Middle Africa                903
    ##  7              660 Anguilla     Latin Amer~ Caribbean                    904
    ##  8               28 Antigua and~ Latin Amer~ Caribbean                    904
    ##  9               32 Argentina    Latin Amer~ South America                904
    ## 10               51 Armenia      Asia        Western Asia                 935
    ## # ... with 222 more rows, and 8 more variables: sub_region_numeric_code <dbl>,
    ## #   is_developed_region <chr>, is_less_developed_region <chr>,
    ## #   is_least_developed_country <chr>, is_in_sub_saharan_africa <chr>,
    ## #   is_unmarried_sexual_activity <chr>, is_low_population <chr>,
    ## #   is_fp2020 <chr>
…
