…
These three functions make running one country FPEM straightforward,
while retaining enough division to carry out a variety of developer and
client tasks. In this document we will cover the typical use of these
three functions.

To start a run we need to know the country code for the country of
interest. Our package contains country codes and other country units in
the dataset `divisions`.

``` r
divisions
```

    ## # A tibble: 232 x 13
    ##    division_numeri~ name_country name_region name_sub_region region_numeric_~ sub_region_nume~
    ##               <dbl> <chr>        <chr>       <chr>                      <dbl>            <dbl>
    ##  1                4 Afghanistan  Asia        South-Central ~              935              921
    ##  2                8 Albania      Europe      Southern Europe              908              925
    ##  3               12 Algeria      Africa      Northern Africa              903              912
    ##  4               16 American Sa~ Oceania     Polynesia                    909              957
    ##  5               20 Andorra      Europe      Southern Europe              908              925
    ##  6               24 Angola       Africa      Middle Africa                903              911
    ##  7              660 Anguilla     Latin Amer~ Caribbean                    904              915
    ##  8               28 Antigua and~ Latin Amer~ Caribbean                    904              915
    ##  9               32 Argentina    Latin Amer~ South America                904              931
    ## 10               51 Armenia      Asia        Western Asia                 935              922
    ## # ... with 222 more rows, and 7 more variables: is_developed_region <chr>,
    ## #   is_less_developed_region <chr>, is_least_developed_country <chr>, is_in_sub_saharan_africa <chr>,
    ## #   is_unmarried_sexual_activity <chr>, is_low_population <chr>, is_fp2020 <chr>
…
The point estimates for each indicator are long-format tibbles. Let’s
take a look at the tibble for the indicator `contraceptive_use_modern`

``` r
results$fit$contraceptive_use_modern
```

    ## # A tibble: 488 x 3
    ##     year percentile  value
    ##    <int> <chr>       <dbl>
    ##  1  1970 mean       0.0115
    ##  2  1971 mean       0.0123
    ##  3  1972 mean       0.0131
    ##  4  1973 mean       0.0141
    ##  5  1974 mean       0.0152
    ##  6  1975 mean       0.0164
    ##  7  1976 mean       0.0178
    ##  8  1977 mean       0.0192
    ##  9  1978 mean       0.0208
    ## 10  1979 mean       0.0225
    ## # ... with 478 more rows
…
