…
The point estimates for each indicator are long-format tibbles. Let’s take a look at the tibble for the indicator contraceptive_use_modern

results$Y$contraceptive_use_modern
#> # A tibble: 488 x 3
#>     year percentile  value
#>    <int> <chr>       <dbl>
#>  1  1970 mean       0.0115
#>  2  1971 mean       0.0123
#>  3  1972 mean       0.0131
#>  4  1973 mean       0.0141
#>  5  1974 mean       0.0150
#>  6  1975 mean       0.0161
#>  7  1976 mean       0.0172
#>  8  1977 mean       0.0183
#>  9  1978 mean       0.0195
#> 10  1979 mean       0.0207
#> # ... with 478 more rows
…
