…
The FPEMcountry package is the one-country implementation of FPEM (family planning estimation model) designed with tidyverse philosophy. The model in this package uses global model results from the package FPEMglobal to aid in the estimation of country level family planning indicators. FPEMcountry comes equiped with survey data, country unit data, and country population count data, to produce one-country runs. Running FPEM is divided into three main functions.

Fit a one country model fpet_fit_model

Calculate point estimates for indicators fpet_calculate_indicaotrs

Plot the point estimates against the survey data fpet_plot

These three functions make running one country FPEM straightforward, while retaining enough division to carry out a variety of developer and client tasks. In this document we will cover the typical use of these three functions.

To start a run we need to know the country code for the country of interest. Our package contains country codes and other country units in the dataset divisions.

divisions

## # A tibble: 232 x 13
##    division_numeri~ name_country
##               <dbl> <chr>       
##  1                4 Afghanistan 
##  2                8 Albania     
##  3               12 Algeria     
##  4               16 American Sa~
##  5               20 Andorra     
##  6               24 Angola      
##  7              660 Anguilla    
##  8               28 Antigua and~
##  9               32 Argentina   
## 10               51 Armenia     
## # ... with 222 more rows, and 11 more
## #   variables: name_region <chr>,
## #   name_sub_region <chr>,
## #   region_numeric_code <dbl>,
## #   sub_region_numeric_code <dbl>,
## #   is_developed_region <chr>,
## #   is_less_developed_region <chr>,
## #   is_least_developed_country <chr>,
## #   is_in_sub_saharan_africa <chr>,
…
The point estimates for each indicator are long-format tibbles. Let’s take a look at the tibble for the indicator contraceptive_use_modern

results$fit$contraceptive_use_modern

## # A tibble: 488 x 3
##     year percentile  value
##    <int> <chr>       <dbl>
##  1  1970 mean       0.0115
##  2  1971 mean       0.0123
##  3  1972 mean       0.0131
##  4  1973 mean       0.0141
##  5  1974 mean       0.0152
##  6  1975 mean       0.0164
##  7  1976 mean       0.0178
##  8  1977 mean       0.0192
##  9  1978 mean       0.0208
## 10  1979 mean       0.0225
## # ... with 478 more rows
…
