…
Aggregate

Within out list of fits we have more complex lists. We only need the samples from these fits. This function plucks the posterior samples and combines each array of samples along index 1 making one large array. The first index of this large array corresponds to the country of the samples. Use dimnames() on the resulting list to see how to index a country. This is the identical format of a posterior samples array from FPEMglobal.

posterior_samples_array <- pluck_abind_fp_c(fits, divs)

To aggregate these samples we need to construct two tibbles. First, create a tibble with the aggregation level and corresponding division codes. The aggregation level column must be named division_level and contain division codes. In this example we will obtain aggregate results for all sub-regions in Africa. Everything we need for our division level column is in the column sub_region_numeric_code of the data set division.

## Get divisions data
division_level_data <- divisions %>%
   dplyr::mutate(division_level = sub_region_numeric_code)%>%
   dplyr::select(division_numeric_code, division_level) %>%
   dplyr::filter(division_numeric_code %in% divs)
division_level_data
#> # A tibble: 54 x 2
#>    division_numeric_code division_level
#>                    <dbl>          <dbl>
#>  1                    12            912
#>  2                    24            911
#>  3                   204            914
#>  4                    72            913
#>  5                   854            914
#>  6                   108            910
#>  7                   132            914
#>  8                   120            911
#>  9                   140            911
#> 10                   148            911
#> # ... with 44 more rows

Lastly, we need the population counts for these countries within the specified years.

## Get population data
population_data <- population_counts %>%
  dplyr::filter(division_numeric_code %in% divs) %>%
  dplyr::filter(is_in_union == union) %>%
  dplyr::filter(mid_year >= first_year) %>%
  dplyr::filter(mid_year <= last_year)
population_data
#> # A tibble: 3,294 x 5
#>    is_in_union division_numeric_code population_count age_range mid_year
#>    <chr>                       <dbl>            <dbl> <chr>        <dbl>
#>  1 Y                              12          1995757 15-49         1970
#>  2 Y                              24           980282 15-49         1970
#>  3 Y                              72            64076 15-49         1970
#>  4 Y                             108           498976 15-49         1970
#>  5 Y                             120          1097088 15-49         1970
#>  6 Y                             132            25759 15-49         1970
#>  7 Y                             140           312421 15-49         1970
#>  8 Y                             148           650581 15-49         1970
#>  9 Y                             174            34282 15-49         1970
#> 10 Y                             178           173462 15-49         1970
#> # ... with 3,284 more rows
…
