…
``` r
## Get divisions data
division_level_data <- divisions %>%
   dplyr::mutate(division_level = sub_region_numeric_code)%>%
   dplyr::select(division_numeric_code, division_level) %>% 
   dplyr::filter(division_numeric_code %in% divs)
division_level_data
#> # A tibble: 54 x 2
#>    division_numeric_code division_level
#>                    <dbl>          <dbl>
#>  1                    12            912
#>  2                    24            911
#>  3                   204            914
#>  4                    72            913
#>  5                   854            914
#>  6                   108            910
#>  7                   132            914
#>  8                   120            911
#>  9                   140            911
#> 10                   148            911
#> # ... with 44 more rows
```

Lastly, we need the population counts for these countries within the
specified years.

``` r
## Get population data
population_data <- population_counts %>%
  dplyr::filter(division_numeric_code %in% divs) %>%
  dplyr::filter(is_in_union == union) %>%
  dplyr::filter(mid_year >= first_year) %>%
  dplyr::filter(mid_year <= last_year) 
population_data
#> # A tibble: 3,294 x 5
#>    is_in_union division_numeri~
#>    <chr>                  <dbl>
#>  1 Y                         12
#>  2 Y                         24
#>  3 Y                         72
#>  4 Y                        108
#>  5 Y                        120
#>  6 Y                        132
#>  7 Y                        140
#>  8 Y                        148
#>  9 Y                        174
#> 10 Y                        178
#> # ... with 3,284 more rows, and 3 more
#> #   variables: population_count <dbl>,
#> #   age_range <chr>, mid_year <dbl>
```
…
