…
The point estimates for each indicator are long-format tibbles. Let’s
take a look at the tibble for the indicator `contraceptive_use_modern`

``` r
resultlist$fitall$contraceptive_use_modern
```

    ## # A tibble: 488 x 3
    ##     year percentile  value
    ##    <int> <chr>       <dbl>
    ##  1  1970 mean       0.0116
    ##  2  1971 mean       0.0123
    ##  3  1972 mean       0.0130
    ##  4  1973 mean       0.0138
    ##  5  1974 mean       0.0147
    ##  6  1975 mean       0.0156
    ##  7  1976 mean       0.0167
    ##  8  1977 mean       0.0179
    ##  9  1978 mean       0.0191
    ## 10  1979 mean       0.0205
    ## # ... with 478 more rows
…
